streamcipher/dump.vcd
$date
	Tue Dec 12 03:00:34 2023
$end
$version
	Icarus Verilog
$end
$timescale
	1s
$end
$scope module test $end
$var wire 1 ! keyBitOutput $end
$var reg 1 " clk $end
$var reg 1 # controlSignal1 $end
$var reg 1 $ controlSignal2 $end
$var reg 64 % decryptedMessage [63:0] $end
$var reg 64 & encryptedMessage [63:0] $end
$var integer 32 ' index [31:0] $end
$var reg 8 ( key [7:0] $end
$var reg 64 ) originalMessage [63:0] $end
$var reg 1 * reset $end
$scope module otp $end
$var wire 1 + clk $end
$var wire 8 , dataInput [7:0] $end
$var wire 1 - edgeBitXOR $end
$var wire 1 . loadControl $end
$var wire 1 / reset $end
$var wire 1 0 shiftControl $end
$var wire 1 1 shiftedBitXOR $end
$var reg 8 2 dataOutput [7:0] $end
$var reg 1 3 dataOutputEnabled $end
$var reg 1 4 dataShifted $end
$upscope $end
$scope task decryptMessage $end
$var reg 64 5 msg [63:0] $end
$upscope $end
$scope task displayResults $end
$upscope $end
$scope task encryptMessage $end
$var reg 64 6 msg [63:0] $end
$upscope $end
$scope task setKey $end
$var reg 8 7 seed [7:0] $end
$upscope $end
$upscope $end
$enddefinitions $end
#10
$dumpvars
b11110000 7
bx 6
bx 5
x4
x3
bx 2
x1
10
0/
1.
x-
b11110000 ,
0+
0*
bx )
b11110000 (
bx '
bx &
bx %
1$
1#
0"
x!
$end
#20
0-
01
b11110000 2
04
0!
13
1"
1+
#30
0"
0+
b111111 '
b100100101010011010011000010000001010101010001100100110101000111 6
b100100101010011010011000010000001010101010001100100110101000111 )
0#
0.
#40
11
b1111000 2
1"
1+
#50
0"
0+
b111110 '
b0xxxxxxxxxxxxxxxxxxxxxxxxxxxxxxxxxxxxxxxxxxxxxxxxxxxxxxxxxxxxxxx &
#60
01
b111100 2
1"
1+
#70
0"
0+
b111101 '
b1xxxxxxxxxxxxxxxxxxxxxxxxxxxxxxxxxxxxxxxxxxxxxxxxxxxxxxxxxxxxxx &
#80
1-
b11110 2
1"
1+
#90
0"
0+
b111100 '
b10xxxxxxxxxxxxxxxxxxxxxxxxxxxxxxxxxxxxxxxxxxxxxxxxxxxxxxxxxxxxx &
#100
0-
11
b10001111 2
1"
1+
#110
0"
0+
b111011 '
b100xxxxxxxxxxxxxxxxxxxxxxxxxxxxxxxxxxxxxxxxxxxxxxxxxxxxxxxxxxxx &
#120
b1000111 2
14
1!
1"
1+
#130
0"
0+
b111010 '
b1000xxxxxxxxxxxxxxxxxxxxxxxxxxxxxxxxxxxxxxxxxxxxxxxxxxxxxxxxxxx &
#140
01
b100011 2
1"
1+
#150
0"
0+
b111001 '
b10001xxxxxxxxxxxxxxxxxxxxxxxxxxxxxxxxxxxxxxxxxxxxxxxxxxxxxxxxxx &
#160
1-
b10001 2
1"
1+
#170
0"
0+
b111000 '
b100011xxxxxxxxxxxxxxxxxxxxxxxxxxxxxxxxxxxxxxxxxxxxxxxxxxxxxxxxx &
#180
0-
11
b10001000 2
1"
1+
#190
0"
0+
b110111 '
b1000110xxxxxxxxxxxxxxxxxxxxxxxxxxxxxxxxxxxxxxxxxxxxxxxxxxxxxxxx &
#200
b1000100 2
04
0!
1"
1+
#210
0"
0+
b110110 '
b10001100xxxxxxxxxxxxxxxxxxxxxxxxxxxxxxxxxxxxxxxxxxxxxxxxxxxxxxx &
#220
1-
01
b100010 2
1"
1+
#230
0"
0+
b110101 '
b100011001xxxxxxxxxxxxxxxxxxxxxxxxxxxxxxxxxxxxxxxxxxxxxxxxxxxxxx &
#240
11
b10010001 2
1"
1+
#250
0"
0+
b110100 '
b1000110010xxxxxxxxxxxxxxxxxxxxxxxxxxxxxxxxxxxxxxxxxxxxxxxxxxxxx &
#260
0-
01
b11001000 2
14
1!
1"
1+
#270
0"
0+
b110011 '
b10001100100xxxxxxxxxxxxxxxxxxxxxxxxxxxxxxxxxxxxxxxxxxxxxxxxxxxx &
#280
11
b1100100 2
04
0!
1"
1+
#290
0"
0+
b110010 '
b100011001000xxxxxxxxxxxxxxxxxxxxxxxxxxxxxxxxxxxxxxxxxxxxxxxxxxx &
#300
1-
01
b110010 2
1"
1+
#310
0"
0+
b110001 '
b1000110010000xxxxxxxxxxxxxxxxxxxxxxxxxxxxxxxxxxxxxxxxxxxxxxxxxx &
#320
11
b10011001 2
1"
1+
#330
0"
0+
b110000 '
b10001100100001xxxxxxxxxxxxxxxxxxxxxxxxxxxxxxxxxxxxxxxxxxxxxxxxx &
#340
0-
01
b11001100 2
14
1!
1"
1+
#350
0"
0+
b101111 '
b100011001000010xxxxxxxxxxxxxxxxxxxxxxxxxxxxxxxxxxxxxxxxxxxxxxxx &
#360
1-
11
b1100110 2
04
0!
1"
1+
#370
0"
0+
b101110 '
b1000110010000100xxxxxxxxxxxxxxxxxxxxxxxxxxxxxxxxxxxxxxxxxxxxxxx &
#380
0-
b10110011 2
1"
1+
#390
0"
0+
b101101 '
b10001100100001001xxxxxxxxxxxxxxxxxxxxxxxxxxxxxxxxxxxxxxxxxxxxxx &
#400
1-
b1011001 2
14
1!
1"
1+
#410
0"
0+
b101100 '
b100011001000010011xxxxxxxxxxxxxxxxxxxxxxxxxxxxxxxxxxxxxxxxxxxxx &
#420
0-
b10101100 2
1"
1+
#430
0"
0+
b101011 '
b1000110010000100111xxxxxxxxxxxxxxxxxxxxxxxxxxxxxxxxxxxxxxxxxxxx &
#440
1-
b1010110 2
04
0!
1"
1+
#450
0"
0+
b101010 '
b10001100100001001111xxxxxxxxxxxxxxxxxxxxxxxxxxxxxxxxxxxxxxxxxxx &
#460
0-
b10101011 2
1"
1+
#470
0"
0+
b101001 '
b100011001000010011111xxxxxxxxxxxxxxxxxxxxxxxxxxxxxxxxxxxxxxxxxx &
#480
1-
b1010101 2
14
1!
1"
1+
#490
0"
0+
b101000 '
b1000110010000100111111xxxxxxxxxxxxxxxxxxxxxxxxxxxxxxxxxxxxxxxxx &
#500
b10101010 2
1"
1+
#510
0"
0+
b100111 '
b10001100100001001111111xxxxxxxxxxxxxxxxxxxxxxxxxxxxxxxxxxxxxxxx &
#520
01
b11010101 2
04
0!
1"
1+
#530
0"
0+
b100110 '
b100011001000010011111110xxxxxxxxxxxxxxxxxxxxxxxxxxxxxxxxxxxxxxx &
#540
b11101010 2
14
1!
1"
1+
#550
0"
0+
b100101 '
b1000110010000100111111101xxxxxxxxxxxxxxxxxxxxxxxxxxxxxxxxxxxxxx &
#560
b11110101 2
04
0!
1"
1+
#570
0"
0+
b100100 '
b10001100100001001111111011xxxxxxxxxxxxxxxxxxxxxxxxxxxxxxxxxxxxx &
#580
b11111010 2
14
1!
1"
1+
#590
0"
0+
b100011 '
b100011001000010011111110111xxxxxxxxxxxxxxxxxxxxxxxxxxxxxxxxxxxx &
#600
b11111101 2
04
0!
1"
1+
#610
0"
0+
b100010 '
b1000110010000100111111101110xxxxxxxxxxxxxxxxxxxxxxxxxxxxxxxxxxx &
#620
b11111110 2
14
1!
1"
1+
#630
0"
0+
b100001 '
b10001100100001001111111011101xxxxxxxxxxxxxxxxxxxxxxxxxxxxxxxxxx &
#640
0-
b11111111 2
04
0!
1"
1+
#650
0"
0+
b100000 '
b100011001000010011111110111010xxxxxxxxxxxxxxxxxxxxxxxxxxxxxxxxx &
#660
11
b1111111 2
14
1!
1"
1+
#670
0"
0+
b11111 '
b1000110010000100111111101110101xxxxxxxxxxxxxxxxxxxxxxxxxxxxxxxx &
#680
01
b111111 2
1"
1+
#690
0"
0+
b11110 '
b10001100100001001111111011101011xxxxxxxxxxxxxxxxxxxxxxxxxxxxxxx &
#700
b11111 2
1"
1+
#710
0"
0+
b11101 '
b100011001000010011111110111010110xxxxxxxxxxxxxxxxxxxxxxxxxxxxxx &
#720
b1111 2
1"
1+
#730
0"
0+
b11100 '
b1000110010000100111111101110101101xxxxxxxxxxxxxxxxxxxxxxxxxxxxx &
#740
b111 2
1"
1+
#750
0"
0+
b11011 '
b10001100100001001111111011101011010xxxxxxxxxxxxxxxxxxxxxxxxxxxx &
#760
b11 2
1"
1+
#770
0"
0+
b11010 '
b100011001000010011111110111010110101xxxxxxxxxxxxxxxxxxxxxxxxxxx &
#780
1-
b1 2
1"
1+
#790
0"
0+
b11001 '
b1000110010000100111111101110101101010xxxxxxxxxxxxxxxxxxxxxxxxxx &
#800
0-
11
b10000000 2
1"
1+
#810
0"
0+
b11000 '
b10001100100001001111111011101011010101xxxxxxxxxxxxxxxxxxxxxxxxx &
#820
b1000000 2
04
0!
1"
1+
#830
0"
0+
b10111 '
b100011001000010011111110111010110101011xxxxxxxxxxxxxxxxxxxxxxxx &
#840
01
b100000 2
1"
1+
#850
0"
0+
b10110 '
b1000110010000100111111101110101101010110xxxxxxxxxxxxxxxxxxxxxxx &
#860
b10000 2
1"
1+
#870
0"
0+
b10101 '
b10001100100001001111111011101011010101101xxxxxxxxxxxxxxxxxxxxxx &
#880
b1000 2
1"
1+
#890
0"
0+
b10100 '
b100011001000010011111110111010110101011010xxxxxxxxxxxxxxxxxxxxx &
#900
b100 2
1"
1+
#910
0"
0+
b10011 '
b1000110010000100111111101110101101010110100xxxxxxxxxxxxxxxxxxxx &
#920
1-
b10 2
1"
1+
#930
0"
0+
b10010 '
b10001100100001001111111011101011010101101000xxxxxxxxxxxxxxxxxxx &
#940
11
b10000001 2
1"
1+
#950
0"
0+
b10001 '
b100011001000010011111110111010110101011010001xxxxxxxxxxxxxxxxxx &
#960
0-
01
b11000000 2
14
1!
1"
1+
#970
0"
0+
b10000 '
b1000110010000100111111101110101101010110100010xxxxxxxxxxxxxxxxx &
#980
11
b1100000 2
04
0!
1"
1+
#990
0"
0+
b1111 '
b10001100100001001111111011101011010101101000100xxxxxxxxxxxxxxxx &
#1000
01
b110000 2
1"
1+
#1010
0"
0+
b1110 '
b100011001000010011111110111010110101011010001000xxxxxxxxxxxxxxx &
#1020
b11000 2
1"
1+
#1030
0"
0+
b1101 '
b1000110010000100111111101110101101010110100010001xxxxxxxxxxxxxx &
#1040
b1100 2
1"
1+
#1050
0"
0+
b1100 '
b10001100100001001111111011101011010101101000100010xxxxxxxxxxxxx &
#1060
1-
b110 2
1"
1+
#1070
0"
0+
b1011 '
b100011001000010011111110111010110101011010001000100xxxxxxxxxxxx &
#1080
0-
11
b10000011 2
1"
1+
#1090
0"
0+
b1010 '
b1000110010000100111111101110101101010110100010001001xxxxxxxxxxx &
#1100
1-
b1000001 2
14
1!
1"
1+
#1110
0"
0+
b1001 '
b10001100100001001111111011101011010101101000100010010xxxxxxxxxx &
#1120
0-
b10100000 2
1"
1+
#1130
0"
0+
b1000 '
b100011001000010011111110111010110101011010001000100101xxxxxxxxx &
#1140
b1010000 2
04
0!
1"
1+
#1150
0"
0+
b111 '
b1000110010000100111111101110101101010110100010001001011xxxxxxxx &
#1160
01
b101000 2
1"
1+
#1170
0"
0+
b110 '
b10001100100001001111111011101011010101101000100010010110xxxxxxx &
#1180
b10100 2
1"
1+
#1190
0"
0+
b101 '
b100011001000010011111110111010110101011010001000100101101xxxxxx &
#1200
1-
b1010 2
1"
1+
#1210
0"
0+
b100 '
b1000110010000100111111101110101101010110100010001001011010xxxxx &
#1220
11
b10000101 2
1"
1+
#1230
0"
0+
b11 '
b10001100100001001111111011101011010101101000100010010110100xxxx &
#1240
01
b11000010 2
14
1!
1"
1+
#1250
0"
0+
b10 '
b100011001000010011111110111010110101011010001000100101101001xxx &
#1260
b11100001 2
04
0!
1"
1+
#1270
0"
0+
b1 '
b1000110010000100111111101110101101010110100010001001011010011xx &
#1280
0-
b11110000 2
14
1!
1"
1+
#1290
0"
0+
b0 '
b10001100100001001111111011101011010101101000100010010110100110x &
#1300
11
b1111000 2
04
0!
1"
1+
#1310
0"
0+
1#
1.
b11111111111111111111111111111111 '
b100011001000010011111110111010110101011010001000100101101001101 &
#1320
01
b11110000 2
1"
1+
#1330
0"
0+
b111111 '
b100011001000010011111110111010110101011010001000100101101001101 5
0#
0.
#1340
11
b1111000 2
1"
1+
#1350
0"
0+
b111110 '
b0xxxxxxxxxxxxxxxxxxxxxxxxxxxxxxxxxxxxxxxxxxxxxxxxxxxxxxxxxxxxxxx %
#1360
01
b111100 2
1"
1+
#1370
0"
0+
b111101 '
b1xxxxxxxxxxxxxxxxxxxxxxxxxxxxxxxxxxxxxxxxxxxxxxxxxxxxxxxxxxxxxx %
#1380
1-
b11110 2
1"
1+
#1390
0"
0+
b111100 '
b10xxxxxxxxxxxxxxxxxxxxxxxxxxxxxxxxxxxxxxxxxxxxxxxxxxxxxxxxxxxxx %
#1400
0-
11
b10001111 2
1"
1+
#1410
0"
0+
b111011 '
b100xxxxxxxxxxxxxxxxxxxxxxxxxxxxxxxxxxxxxxxxxxxxxxxxxxxxxxxxxxxx %
#1420
b1000111 2
14
1!
1"
1+
#1430
0"
0+
b111010 '
b1001xxxxxxxxxxxxxxxxxxxxxxxxxxxxxxxxxxxxxxxxxxxxxxxxxxxxxxxxxxx %
#1440
01
b100011 2
1"
1+
#1450
0"
0+
b111001 '
b10010xxxxxxxxxxxxxxxxxxxxxxxxxxxxxxxxxxxxxxxxxxxxxxxxxxxxxxxxxx %
#1460
1-
b10001 2
1"
1+
#1470
0"
0+
b111000 '
b100100xxxxxxxxxxxxxxxxxxxxxxxxxxxxxxxxxxxxxxxxxxxxxxxxxxxxxxxxx %
#1480
0-
11
b10001000 2
1"
1+
#1490
0"
0+
b110111 '
b1001001xxxxxxxxxxxxxxxxxxxxxxxxxxxxxxxxxxxxxxxxxxxxxxxxxxxxxxxx %
#1500
b1000100 2
04
0!
1"
1+
#1510
0"
0+
b110110 '
b10010010xxxxxxxxxxxxxxxxxxxxxxxxxxxxxxxxxxxxxxxxxxxxxxxxxxxxxxx %
#1520
1-
01
b100010 2
1"
1+
#1530
0"
0+
b110101 '
b100100101xxxxxxxxxxxxxxxxxxxxxxxxxxxxxxxxxxxxxxxxxxxxxxxxxxxxxx %
#1540
11
b10010001 2
1"
1+
#1550
0"
0+
b110100 '
b1001001010xxxxxxxxxxxxxxxxxxxxxxxxxxxxxxxxxxxxxxxxxxxxxxxxxxxxx %
#1560
0-
01
b11001000 2
14
1!
1"
1+
#1570
0"
0+
b110011 '
b10010010101xxxxxxxxxxxxxxxxxxxxxxxxxxxxxxxxxxxxxxxxxxxxxxxxxxxx %
#1580
11
b1100100 2
04
0!
1"
1+
#1590
0"
0+
b110010 '
b100100101010xxxxxxxxxxxxxxxxxxxxxxxxxxxxxxxxxxxxxxxxxxxxxxxxxxx %
#1600
1-
01
b110010 2
1"
1+
#1610
0"
0+
b110001 '
b1001001010100xxxxxxxxxxxxxxxxxxxxxxxxxxxxxxxxxxxxxxxxxxxxxxxxxx %
#1620
11
b10011001 2
1"
1+
#1630
0"
0+
b110000 '
b10010010101001xxxxxxxxxxxxxxxxxxxxxxxxxxxxxxxxxxxxxxxxxxxxxxxxx %
#1640
0-
01
b11001100 2
14
1!
1"
1+
#1650
0"
0+
b101111 '
b100100101010011xxxxxxxxxxxxxxxxxxxxxxxxxxxxxxxxxxxxxxxxxxxxxxxx %
#1660
1-
11
b1100110 2
04
0!
1"
1+
#1670
0"
0+
b101110 '
b1001001010100110xxxxxxxxxxxxxxxxxxxxxxxxxxxxxxxxxxxxxxxxxxxxxxx %
#1680
0-
b10110011 2
1"
1+
#1690
0"
0+
b101101 '
b10010010101001101xxxxxxxxxxxxxxxxxxxxxxxxxxxxxxxxxxxxxxxxxxxxxx %
#1700
1-
b1011001 2
14
1!
1"
1+
#1710
0"
0+
b101100 '
b100100101010011010xxxxxxxxxxxxxxxxxxxxxxxxxxxxxxxxxxxxxxxxxxxxx %
#1720
0-
b10101100 2
1"
1+
#1730
0"
0+
b101011 '
b1001001010100110100xxxxxxxxxxxxxxxxxxxxxxxxxxxxxxxxxxxxxxxxxxxx %
#1740
1-
b1010110 2
04
0!
1"
1+
#1750
0"
0+
b101010 '
b10010010101001101001xxxxxxxxxxxxxxxxxxxxxxxxxxxxxxxxxxxxxxxxxxx %
#1760
0-
b10101011 2
1"
1+
#1770
0"
0+
b101001 '
b100100101010011010011xxxxxxxxxxxxxxxxxxxxxxxxxxxxxxxxxxxxxxxxxx %
#1780
1-
b1010101 2
14
1!
1"
1+
#1790
0"
0+
b101000 '
b1001001010100110100110xxxxxxxxxxxxxxxxxxxxxxxxxxxxxxxxxxxxxxxxx %
#1800
b10101010 2
1"
1+
#1810
0"
0+
b100111 '
b10010010101001101001100xxxxxxxxxxxxxxxxxxxxxxxxxxxxxxxxxxxxxxxx %
#1820
01
b11010101 2
04
0!
1"
1+
#1830
0"
0+
b100110 '
b100100101010011010011000xxxxxxxxxxxxxxxxxxxxxxxxxxxxxxxxxxxxxxx %
#1840
b11101010 2
14
1!
1"
1+
#1850
0"
0+
b100101 '
b1001001010100110100110000xxxxxxxxxxxxxxxxxxxxxxxxxxxxxxxxxxxxxx %
#1860
b11110101 2
04
0!
1"
1+
#1870
0"
0+
b100100 '
b10010010101001101001100001xxxxxxxxxxxxxxxxxxxxxxxxxxxxxxxxxxxxx %
#1880
b11111010 2
14
1!
1"
1+
#1890
0"
0+
b100011 '
b100100101010011010011000010xxxxxxxxxxxxxxxxxxxxxxxxxxxxxxxxxxxx %
#1900
b11111101 2
04
0!
1"
1+
#1910
0"
0+
b100010 '
b1001001010100110100110000100xxxxxxxxxxxxxxxxxxxxxxxxxxxxxxxxxxx %
#1920
b11111110 2
14
1!
1"
1+
#1930
0"
0+
b100001 '
b10010010101001101001100001000xxxxxxxxxxxxxxxxxxxxxxxxxxxxxxxxxx %
#1940
0-
b11111111 2
04
0!
1"
1+
#1950
0"
0+
b100000 '
b100100101010011010011000010000xxxxxxxxxxxxxxxxxxxxxxxxxxxxxxxxx %
#1960
11
b1111111 2
14
1!
1"
1+
#1970
0"
0+
b11111 '
b1001001010100110100110000100000xxxxxxxxxxxxxxxxxxxxxxxxxxxxxxxx %
#1980
01
b111111 2
1"
1+
#1990
0"
0+
b11110 '
b10010010101001101001100001000000xxxxxxxxxxxxxxxxxxxxxxxxxxxxxxx %
#2000
b11111 2
1"
1+
#2010
0"
0+
b11101 '
b100100101010011010011000010000001xxxxxxxxxxxxxxxxxxxxxxxxxxxxxx %
#2020
b1111 2
1"
1+
#2030
0"
0+
b11100 '
b1001001010100110100110000100000010xxxxxxxxxxxxxxxxxxxxxxxxxxxxx %
#2040
b111 2
1"
1+
#2050
0"
0+
b11011 '
b10010010101001101001100001000000101xxxxxxxxxxxxxxxxxxxxxxxxxxxx %
#2060
b11 2
1"
1+
#2070
0"
0+
b11010 '
b100100101010011010011000010000001010xxxxxxxxxxxxxxxxxxxxxxxxxxx %
#2080
1-
b1 2
1"
1+
#2090
0"
0+
b11001 '
b1001001010100110100110000100000010101xxxxxxxxxxxxxxxxxxxxxxxxxx %
#2100
0-
11
b10000000 2
1"
1+
#2110
0"
0+
b11000 '
b10010010101001101001100001000000101010xxxxxxxxxxxxxxxxxxxxxxxxx %
#2120
b1000000 2
04
0!
1"
1+
#2130
0"
0+
b10111 '
b100100101010011010011000010000001010101xxxxxxxxxxxxxxxxxxxxxxxx %
#2140
01
b100000 2
1"
1+
#2150
0"
0+
b10110 '
b1001001010100110100110000100000010101010xxxxxxxxxxxxxxxxxxxxxxx %
#2160
b10000 2
1"
1+
#2170
0"
0+
b10101 '
b10010010101001101001100001000000101010101xxxxxxxxxxxxxxxxxxxxxx %
#2180
b1000 2
1"
1+
#2190
0"
0+
b10100 '
b100100101010011010011000010000001010101010xxxxxxxxxxxxxxxxxxxxx %
#2200
b100 2
1"
1+
#2210
0"
0+
b10011 '
b1001001010100110100110000100000010101010100xxxxxxxxxxxxxxxxxxxx %
#2220
1-
b10 2
1"
1+
#2230
0"
0+
b10010 '
b10010010101001101001100001000000101010101000xxxxxxxxxxxxxxxxxxx %
#2240
11
b10000001 2
1"
1+
#2250
0"
0+
b10001 '
b100100101010011010011000010000001010101010001xxxxxxxxxxxxxxxxxx %
#2260
0-
01
b11000000 2
14
1!
1"
1+
#2270
0"
0+
b10000 '
b1001001010100110100110000100000010101010100011xxxxxxxxxxxxxxxxx %
#2280
11
b1100000 2
04
0!
1"
1+
#2290
0"
0+
b1111 '
b10010010101001101001100001000000101010101000110xxxxxxxxxxxxxxxx %
#2300
01
b110000 2
1"
1+
#2310
0"
0+
b1110 '
b100100101010011010011000010000001010101010001100xxxxxxxxxxxxxxx %
#2320
b11000 2
1"
1+
#2330
0"
0+
b1101 '
b1001001010100110100110000100000010101010100011001xxxxxxxxxxxxxx %
#2340
b1100 2
1"
1+
#2350
0"
0+
b1100 '
b10010010101001101001100001000000101010101000110010xxxxxxxxxxxxx %
#2360
1-
b110 2
1"
1+
#2370
0"
0+
b1011 '
b100100101010011010011000010000001010101010001100100xxxxxxxxxxxx %
#2380
0-
11
b10000011 2
1"
1+
#2390
0"
0+
b1010 '
b1001001010100110100110000100000010101010100011001001xxxxxxxxxxx %
#2400
1-
b1000001 2
14
1!
1"
1+
#2410
0"
0+
b1001 '
b10010010101001101001100001000000101010101000110010011xxxxxxxxxx %
#2420
0-
b10100000 2
1"
1+
#2430
0"
0+
b1000 '
b100100101010011010011000010000001010101010001100100110xxxxxxxxx %
#2440
b1010000 2
04
0!
1"
1+
#2450
0"
0+
b111 '
b1001001010100110100110000100000010101010100011001001101xxxxxxxx %
#2460
01
b101000 2
1"
1+
#2470
0"
0+
b110 '
b10010010101001101001100001000000101010101000110010011010xxxxxxx %
#2480
b10100 2
1"
1+
#2490
0"
0+
b101 '
b100100101010011010011000010000001010101010001100100110101xxxxxx %
#2500
1-
b1010 2
1"
1+
#2510
0"
0+
b100 '
b1001001010100110100110000100000010101010100011001001101010xxxxx %
#2520
11
b10000101 2
1"
1+
#2530
0"
0+
b11 '
b10010010101001101001100001000000101010101000110010011010100xxxx %
#2540
01
b11000010 2
14
1!
1"
1+
#2550
0"
0+
b10 '
b100100101010011010011000010000001010101010001100100110101000xxx %
#2560
b11100001 2
04
0!
1"
1+
#2570
0"
0+
b1 '
b1001001010100110100110000100000010101010100011001001101010001xx %
#2580
0-
b11110000 2
14
1!
1"
1+
#2590
0"
0+
b0 '
b10010010101001101001100001000000101010101000110010011010100011x %
#2600
11
b1111000 2
04
0!
1"
1+
#2610
0"
0+
b11111111111111111111111111111111 '
b100100101010011010011000010000001010101010001100100110101000111 %
